ass2/figures/Other Captures/tek0003.csv

Model,MDO3024
Firmware Version,1.30

Waveform Type,ANALOG,
Point Format,Y,
Horizontal Units,s,
Horizontal Scale,2e-05,
Horizontal Delay,0,
Sample Interval,2e-08,
Record Length,10000,
Gating,0.0% to 100.0%,
Probe Attenuation,1,1
Vertical Units,V,V
Vertical Offset,5.03,0
Vertical Scale,1,2
Vertical Position,2.2,-2.8
,,
,,
,,
Label,,
TIME,CH1,CH2
-1.0000e-04,4.99,3.52
-9.9980e-05,4.99,3.52
-9.9960e-05,4.99,3.6
-9.9940e-05,4.95,3.52
-9.9920e-05,4.99,3.6
-9.9900e-05,4.99,3.6
-9.9880e-05,4.99,3.52
-9.9860e-05,4.95,3.6
-9.9840e-05,4.95,3.68
-9.9820e-05,4.95,3.52
-9.9800e-05,4.99,3.52
-9.9780e-05,5.03,3.6
-9.9760e-05,4.99,3.6
-9.9740e-05,5.03,3.6
-9.9720e-05,4.99,3.52
-9.9700e-05,4.99,3.6
-9.9680e-05,5.03,3.6
-9.9660e-05,4.99,3.6
-9.9640e-05,4.99,3.6
-9.9620e-05,4.99,3.6
-9.9600e-05,4.99,3.52
-9.9580e-05,4.99,3.52
-9.9560e-05,5.03,3.52
-9.9540e-05,4.99,3.6
-9.9520e-05,5.03,3.52
-9.9500e-05,4.95,3.52
-9.9480e-05,4.99,3.6
-9.9460e-05,4.99,3.6
-9.9440e-05,4.99,3.52
-9.9420e-05,4.99,3.6
-9.9400e-05,4.95,3.6
-9.9380e-05,4.95,3.6
-9.9360e-05,4.99,3.44
-9.9340e-05,4.99,3.52
-9.9320e-05,4.99,3.6
-9.9300e-05,4.99,3.6
-9.9280e-05,4.95,3.52
-9.9260e-05,4.99,3.6
-9.9240e-05,4.95,3.6
-9.9220e-05,4.99,3.6
-9.9200e-05,4.95,3.52
-9.9180e-05,4.99,3.68
-9.9160e-05,4.99,3.6
-9.9140e-05,4.99,3.68
-9.9120e-05,4.95,3.6
-9.9100e-05,5.03,3.6
-9.9080e-05,4.99,3.6
-9.9060e-05,4.99,3.6
-9.9040e-05,4.99,3.6
-9.9020e-05,4.99,3.6
-9.9000e-05,4.99,3.52
-9.8980e-05,4.99,3.6
-9.8960e-05,4.99,3.6
-9.8940e-05,4.99,3.6
-9.8920e-05,4.99,3.6
-9.8900e-05,5.03,3.6
-9.8880e-05,4.99,3.6
-9.8860e-05,4.99,3.6
-9.8840e-05,4.99,3.6
-9.8820e-05,4.99,3.6
-9.8800e-05,4.99,3.6
-9.8780e-05,4.99,3.6
-9.8760e-05,4.95,3.52
-9.8740e-05,4.99,3.6
-9.8720e-05,4.99,3.6
-9.8700e-05,5.03,3.52
-9.8680e-05,5.03,3.6
-9.8660e-05,4.99,3.6
-9.8640e-05,5.03,3.6
-9.8620e-05,4.99,3.6
-9.8600e-05,4.99,3.6
-9.8580e-05,4.99,3.52
-9.8560e-05,5.03,3.52
-9.8540e-05,4.99,3.6
-9.8520e-05,4.99,3.6
-9.8500e-05,4.99,3.52
-9.8480e-05,4.99,3.6
-9.8460e-05,5.03,3.6
-9.8440e-05,5.03,3.44
-9.8420e-05,4.99,3.52
-9.8400e-05,5.03,3.6
-9.8380e-05,4.99,3.44
-9.8360e-05,5.03,3.52
-9.8340e-05,5.03,3.52
-9.8320e-05,4.99,3.44
-9.8300e-05,4.95,3.52
-9.8280e-05,4.99,1.68
-9.8260e-05,4.99,0.4
-9.8240e-05,5.03,0.24
-9.8220e-05,4.99,0.48
-9.8200e-05,5.03,0.64
-9.8180e-05,5.07,0.64
-9.8160e-05,5.03,0.64
-9.8140e-05,5.11,0.56
-9.8120e-05,5.15,0.48
-9.8100e-05,4.83,0.64
-9.8080e-05,4.27,1.92
-9.8060e-05,5.87,1.68
-9.8040e-05,4.11,1.12
-9.8020e-05,6.11,0.24
-9.8000e-05,4.75,0.8
-9.7980e-05,4.75,0.32
-9.7960e-05,5.27,0.8
-9.7940e-05,4.23,0.8
-9.7920e-05,5.63,0.64
-9.7900e-05,4.63,0.56
-9.7880e-05,5.27,0.56
-9.7860e-05,5.03,0.56
-9.7840e-05,4.55,0.72
-9.7820e-05,5.59,0.64
-9.7800e-05,4.39,0.64
-9.7780e-05,5.35,0.64
-9.7760e-05,5.15,0.56
-9.7740e-05,4.55,0.64
-9.7720e-05,5.59,0.56
-9.7700e-05,4.39,0.64
-9.7680e-05,5.35,0.56
-9.7660e-05,4.87,0.64
-9.7640e-05,4.75,0.72
-9.7620e-05,5.43,0.56
-9.7600e-05,4.47,0.64
-9.7580e-05,5.47,0.56
-9.7560e-05,4.71,0.56
-9.7540e-05,4.99,0.56
-9.7520e-05,5.19,0.72
-9.7500e-05,4.63,0.64
-9.7480e-05,5.31,0.72
-9.7460e-05,4.79,0.72
-9.7440e-05,5.11,0.64
-9.7420e-05,5.03,0.64
-9.7400e-05,4.91,0.64
-9.7380e-05,5.15,0.56
-9.7360e-05,4.71,0.64
-9.7340e-05,5.03,0.64
-9.7320e-05,4.99,0.64
-9.7300e-05,4.91,0.56
-9.7280e-05,5.11,0.64
-9.7260e-05,4.95,0.64
-9.7240e-05,5.07,0.64
-9.7220e-05,4.91,0.72
-9.7200e-05,5.03,0.64
-9.7180e-05,4.95,0.64
-9.7160e-05,4.99,0.72
-9.7140e-05,5.07,0.64
-9.7120e-05,4.99,0.64
-9.7100e-05,5.03,0.72
-9.7080e-05,4.99,0.64
-9.7060e-05,4.95,0.64
-9.7040e-05,5.03,0.8
-9.7020e-05,5.03,0.64
-9.7000e-05,5.07,0.72
-9.6980e-05,4.99,0.64
-9.6960e-05,5.07,0.64
-9.6940e-05,5.03,0.64
-9.6920e-05,4.95,0.64
-9.6900e-05,5.03,0.72
-9.6880e-05,4.99,0.8
-9.6860e-05,5.03,0.72
-9.6840e-05,5.03,0.64
-9.6820e-05,5.03,0.72
-9.6800e-05,4.99,0.64
-9.6780e-05,5.03,0.72
-9.6760e-05,5.11,0.72
-9.6740e-05,4.99,0.72
-9.6720e-05,5.03,0.72
-9.6700e-05,5.07,0.72
-9.6680e-05,5.03,0.64
-9.6660e-05,5.03,0.72
-9.6640e-05,4.99,0.64
-9.6620e-05,5.03,0.72
-9.6600e-05,4.99,0.72
-9.6580e-05,4.99,0.72
-9.6560e-05,5.03,0.64
-9.6540e-05,5.03,0.72
-9.6520e-05,5.07,0.64
-9.6500e-05,5.03,0.64
-9.6480e-05,5.03,0.72
-9.6460e-05,4.99,0.64
-9.6440e-05,4.99,0.72
-9.6420e-05,4.99,0.72
-9.6400e-05,4.99,0.72
-9.6380e-05,4.95,0.64
-9.6360e-05,5.03,0.72
-9.6340e-05,5.03,0.72
-9.6320e-05,4.99,0.64
-9.6300e-05,4.95,0.72
-9.6280e-05,4.99,0.64
-9.6260e-05,4.99,0.72
-9.6240e-05,5.03,0.64
-9.6220e-05,5.03,0.72
-9.6200e-05,5.03,0.64
-9.6180e-05,5.03,0.64
-9.6160e-05,4.99,0.64
-9.6140e-05,5.03,0.64
-9.6120e-05,4.99,0.64
-9.6100e-05,5.03,0.72
-9.6080e-05,4.99,0.72
-9.6060e-05,5.03,0.64
-9.6040e-05,4.99,0.64
-9.6020e-05,4.99,0.72
-9.6000e-05,4.99,0.72
-9.5980e-05,4.99,0.72
-9.5960e-05,5.03,0.72
-9.5940e-05,5.03,0.72
-9.5920e-05,5.03,0.64
-9.5900e-05,4.99,0.64
-9.5880e-05,4.99,0.64
-9.5860e-05,5.03,0.56
-9.5840e-05,4.99,0.64
-9.5820e-05,4.95,0.72
-9.5800e-05,4.95,0.64
-9.5780e-05,4.99,0.72
-9.5760e-05,4.99,0.72
-9.5740e-05,4.99,0.64
-9.5720e-05,4.95,0.64
-9.5700e-05,4.95,0.8
-9.5680e-05,4.95,0.72
-9.5660e-05,4.95,0.64
-9.5640e-05,4.99,0.64
-9.5620e-05,4.99,0.64
-9.5600e-05,4.99,0.64
-9.5580e-05,5.03,0.72
-9.5560e-05,5.03,0.64
-9.5540e-05,4.95,0.64
-9.5520e-05,5.03,0.64
-9.5500e-05,4.99,0.64
-9.5480e-05,4.99,0.56
-9.5460e-05,4.99,0.72
-9.5440e-05,4.99,0.64
-9.5420e-05,5.03,0.64
-9.5400e-05,4.99,0.64
-9.5380e-05,4.99,0.64
-9.5360e-05,4.99,0.64
-9.5340e-05,4.95,0.72
-9.5320e-05,4.99,0.72
-9.5300e-05,4.99,0.72
-9.5280e-05,4.99,0.72
-9.5260e-05,4.95,0.72
-9.5240e-05,4.99,0.72
-9.5220e-05,4.95,0.56
-9.5200e-05,5.07,0.64
-9.5180e-05,4.99,0.72
-9.5160e-05,4.99,0.72
-9.5140e-05,4.99,0.64
-9.5120e-05,4.99,0.64
-9.5100e-05,4.99,0.72
-9.5080e-05,4.99,0.64
-9.5060e-05,4.99,0.72
-9.5040e-05,5.03,0.72
-9.5020e-05,4.99,0.64
-9.5000e-05,5.03,0.72
-9.4980e-05,4.99,0.64
-9.4960e-05,4.99,0.64
-9.4940e-05,4.95,0.64
-9.4920e-05,4.99,0.64
-9.4900e-05,4.99,0.72
-9.4880e-05,5.03,0.64
-9.4860e-05,4.99,0.72
-9.4840e-05,4.95,0.64
-9.4820e-05,4.99,0.64
-9.4800e-05,4.99,0.72
-9.4780e-05,4.95,0.64
-9.4760e-05,4.99,0.56
-9.4740e-05,5.03,0.72
-9.4720e-05,4.99,0.64
-9.4700e-05,4.99,0.72
-9.4680e-05,5.03,0.72
-9.4660e-05,5.03,0.72
-9.4640e-05,4.99,0.72
-9.4620e-05,5.03,0.64
-9.4600e-05,4.99,0.72
-9.4580e-05,4.99,0.64
-9.4560e-05,4.99,0.72
-9.4540e-05,4.99,0.72
-9.4520e-05,5.03,0.72
-9.4500e-05,5.03,0.72
-9.4480e-05,4.99,0.72
-9.4460e-05,4.99,0.72
-9.4440e-05,5.03,0.64
-9.4420e-05,4.99,0.64
-9.4400e-05,5.03,0.64
-9.4380e-05,5.03,0.64
-9.4360e-05,4.99,0.64
-9.4340e-05,5.03,0.72
-9.4320e-05,4.99,0.64
-9.4300e-05,4.99,0.64
-9.4280e-05,4.99,0.72
-9.4260e-05,4.99,0.64
-9.4240e-05,4.99,0.72
-9.4220e-05,4.99,0.64
-9.4200e-05,5.03,0.72
-9.4180e-05,4.99,0.64
-9.4160e-05,4.91,0.72
-9.4140e-05,5.07,0.64
-9.4120e-05,4.99,0.64
-9.4100e-05,4.95,0.64
-9.4080e-05,4.99,0.72
-9.4060e-05,4.99,0.64
-9.4040e-05,4.95,0.64
-9.4020e-05,5.03,0.72
-9.4000e-05,4.99,0.72
-9.3980e-05,4.99,2.72
-9.3960e-05,4.99,3.84
-9.3940e-05,4.95,4.08
-9.3920e-05,4.95,3.68
-9.3900e-05,4.99,3.6
-9.3880e-05,4.99,3.52
-9.3860e-05,4.95,3.68
-9.3840e-05,4.95,3.6
-9.3820e-05,4.95,3.6
-9.3800e-05,4.95,3.68
-9.3780e-05,4.99,3.6
-9.3760e-05,4.99,3.6
-9.3740e-05,4.99,3.52
-9.3720e-05,4.99,3.6
-9.3700e-05,4.95,3.6
-9.3680e-05,5.03,3.68
-9.3660e-05,4.99,3.68
-9.3640e-05,4.95,3.6
-9.3620e-05,4.99,3.68
-9.3600e-05,4.95,3.68
-9.3580e-05,4.99,3.52
-9.3560e-05,4.95,3.6
-9.3540e-05,4.99,3.6
-9.3520e-05,4.99,3.6
-9.3500e-05,4.95,3.68
-9.3480e-05,4.99,3.6
-9.3460e-05,4.91,3.6
-9.3440e-05,4.95,3.68
-9.3420e-05,4.99,3.6
-9.3400e-05,4.99,3.6
-9.3380e-05,4.99,3.68
-9.3360e-05,4.99,3.6
-9.3340e-05,5.63,2.96
-9.3320e-05,4.59,3.28
-9.3300e-05,4.91,3.76
-9.3280e-05,5.59,3.36
-9.3260e-05,4.39,3.68
-9.3240e-05,5.27,3.76
-9.3220e-05,5.07,3.76
-9.3200e-05,4.91,3.52
-9.3180e-05,5.15,3.68
-9.3160e-05,4.91,3.68
-9.3140e-05,4.87,3.68
-9.3120e-05,4.91,3.68
-9.3100e-05,5.07,3.76
-9.3080e-05,5.15,3.52
-9.3060e-05,4.75,3.6
-9.3040e-05,5.39,3.68
-9.3020e-05,4.79,3.6
-9.3000e-05,4.75,3.6
-9.2980e-05,5.27,3.68
-9.2960e-05,4.71,3.6
-9.2940e-05,5.11,3.6
-9.2920e-05,5.03,3.6
-9.2900e-05,5.07,3.52
-9.2880e-05,5.03,3.68
-9.2860e-05,4.87,3.6
-9.2840e-05,5.07,3.6
-9.2820e-05,4.75,3.68
-9.2800e-05,5.11,3.68
-9.2780e-05,5.07,3.6
-9.2760e-05,4.87,3.6
-9.2740e-05,5.19,3.68
-9.2720e-05,4.91,3.6
-9.2700e-05,4.95,3.6
-9.2680e-05,4.99,3.6
-9.2660e-05,5.03,3.68
-9.2640e-05,4.99,3.68
-9.2620e-05,4.99,3.68
-9.2600e-05,5.07,3.52
-9.2580e-05,4.91,3.6
-9.2560e-05,4.91,3.6
-9.2540e-05,4.95,3.68
-9.2520e-05,4.87,3.52
-9.2500e-05,5.03,3.68
-9.2480e-05,5.03,3.6
-9.2460e-05,4.99,3.52
-9.2440e-05,4.95,3.6
-9.2420e-05,5.03,3.52
-9.2400e-05,4.95,3.6
-9.2380e-05,4.87,3.6
-9.2360e-05,4.99,3.6
-9.2340e-05,4.95,3.52
-9.2320e-05,4.99,3.6
-9.2300e-05,5.03,3.52
-9.2280e-05,4.99,3.6
-9.2260e-05,4.91,3.44
-9.2240e-05,4.95,3.52
-9.2220e-05,4.95,3.52
-9.2200e-05,4.87,3.52
-9.2180e-05,4.95,3.52
-9.2160e-05,4.99,3.52
-9.2140e-05,4.99,3.6
-9.2120e-05,4.99,3.44
-9.2100e-05,4.95,3.52
-9.2080e-05,4.91,3.52
-9.2060e-05,4.95,3.6
-9.2040e-05,4.95,3.6
-9.2020e-05,4.99,3.6
-9.2000e-05,4.99,3.6
-9.1980e-05,4.99,3.52
-9.1960e-05,4.91,3.44
-9.1940e-05,4.95,3.6
-9.1920e-05,4.99,3.6
-9.1900e-05,4.95,3.6
-9.1880e-05,4.99,3.6
-9.1860e-05,4.95,3.44
-9.1840e-05,4.99,3.52
-9.1820e-05,4.95,3.6
-9.1800e-05,4.95,3.44
-9.1780e-05,4.95,3.68
-9.1760e-05,4.95,3.52
-9.1740e-05,4.95,3.6
-9.1720e-05,5.03,3.52
-9.1700e-05,4.99,3.52
-9.1680e-05,4.99,3.52
-9.1660e-05,4.99,3.6
-9.1640e-05,4.95,3.52
-9.1620e-05,4.95,3.52
-9.1600e-05,4.99,3.6
-9.1580e-05,4.95,3.6
-9.1560e-05,4.99,3.52
-9.1540e-05,4.99,3.52
-9.1520e-05,4.91,3.6
-9.1500e-05,4.95,3.6
-9.1480e-05,4.95,3.6
-9.1460e-05,4.99,3.6
-9.1440e-05,4.99,3.52
-9.1420e-05,4.99,3.52
-9.1400e-05,4.99,3.6
-9.1380e-05,4.99,3.52
-9.1360e-05,4.91,3.52
-9.1340e-05,5.03,3.6
-9.1320e-05,4.91,3.44
-9.1300e-05,4.95,3.6
-9.1280e-05,4.99,3.6
-9.1260e-05,4.91,3.6
-9.1240e-05,5.07,3.6
-9.1220e-05,4.99,3.6
-9.1200e-05,4.95,3.68
-9.1180e-05,4.99,3.52
-9.1160e-05,4.99,3.68
-9.1140e-05,4.95,3.52
-9.1120e-05,4.99,3.68
-9.1100e-05,4.95,3.6
-9.1080e-05,4.99,3.6
-9.1060e-05,4.95,3.6
-9.1040e-05,4.99,3.6
-9.1020e-05,4.99,3.6
-9.1000e-05,4.99,3.6
-9.0980e-05,4.99,3.6
-9.0960e-05,4.99,3.68
-9.0940e-05,4.95,3.6
-9.0920e-05,4.99,3.52
-9.0900e-05,4.99,3.52
-9.0880e-05,4.95,3.6
-9.0860e-05,4.99,3.6
-9.0840e-05,4.95,3.68
-9.0820e-05,4.99,3.52
-9.0800e-05,5.03,3.52
-9.0780e-05,4.99,3.52
-9.0760e-05,4.95,3.6
-9.0740e-05,4.99,3.52
-9.0720e-05,4.91,3.52
-9.0700e-05,4.95,3.52
-9.0680e-05,4.99,3.52
-9.0660e-05,4.99,3.6
-9.0640e-05,5.03,3.52
-9.0620e-05,5.03,3.6
-9.0600e-05,4.95,3.6
-9.0580e-05,4.99,3.6
-9.0560e-05,4.99,3.52
-9.0540e-05,4.99,3.6
-9.0520e-05,4.99,3.6
-9.0500e-05,5.03,3.52
-9.0480e-05,4.99,3.6
-9.0460e-05,4.99,3.6
-9.0440e-05,4.95,3.6
-9.0420e-05,4.95,3.52
-9.0400e-05,4.95,3.52
-9.0380e-05,4.99,3.68
-9.0360e-05,4.99,3.6
-9.0340e-05,4.95,3.6
-9.0320e-05,5.03,3.52
-9.0300e-05,4.99,3.6
-9.0280e-05,4.99,3.6
-9.0260e-05,4.95,3.6
-9.0240e-05,4.99,3.52
-9.0220e-05,5.03,3.6
-9.0200e-05,4.99,3.52
-9.0180e-05,4.99,3.6
-9.0160e-05,4.99,3.6
-9.0140e-05,4.99,3.6
-9.0120e-05,4.95,3.52
-9.0100e-05,4.99,3.52
-9.0080e-05,4.99,3.52
-9.0060e-05,4.95,3.6
-9.0040e-05,4.99,3.52
-9.0020e-05,4.99,3.6
-9.0000e-05,4.99,3.52
-8.9980e-05,4.99,3.6
-8.9960e-05,4.95,3.52
-8.9940e-05,4.99,3.6
-8.9920e-05,4.99,3.6
-8.9900e-05,4.95,3.6
-8.9880e-05,4.99,3.6
-8.9860e-05,5.03,3.6
-8.9840e-05,4.99,3.6
-8.9820e-05,4.99,3.52
-8.9800e-05,5.03,3.6
-8.9780e-05,4.95,3.6
-8.9760e-05,4.99,3.6
-8.9740e-05,4.99,3.6
-8.9720e-05,4.99,3.6
-8.9700e-05,4.95,3.6
-8.9680e-05,4.95,3.52
-8.9660e-05,4.99,3.52
-8.9640e-05,4.95,3.6
-8.9620e-05,5.03,3.6
-8.9600e-05,5.03,3.6
-8.9580e-05,4.99,3.6
-8.9560e-05,4.95,3.6
-8.9540e-05,4.95,3.6
-8.9520e-05,4.99,3.52
-8.9500e-05,4.99,3.52
-8.9480e-05,5.03,3.6
-8.9460e-05,5.03,3.6
-8.9440e-05,4.99,3.52
-8.9420e-05,4.95,3.68
-8.9400e-05,4.99,3.6
-8.9380e-05,4.99,3.6
-8.9360e-05,4.99,3.6
-8.9340e-05,5.03,3.6
-8.9320e-05,4.99,3.6
-8.9300e-05,4.99,3.6
-8.9280e-05,5.07,3.6
-8.9260e-05,4.99,3.52
-8.9240e-05,5.03,3.6
-8.9220e-05,4.99,3.6
-8.9200e-05,4.99,3.52
-8.9180e-05,4.91,3.6
-8.9160e-05,4.99,3.6
-8.9140e-05,4.99,3.6
-8.9120e-05,5.03,3.52
-8.9100e-05,4.99,3.52
-8.9080e-05,4.99,3.52
-8.9060e-05,4.99,3.68
-8.9040e-05,5.03,3.6
-8.9020e-05,4.99,3.6
-8.9000e-05,4.99,3.6
-8.8980e-05,5.03,3.52
-8.8960e-05,4.95,3.52
-8.8940e-05,4.99,3.52
-8.8920e-05,5.03,3.6
-8.8900e-05,4.99,3.6
-8.8880e-05,5.07,3.6
-8.8860e-05,5.03,3.6
-8.8840e-05,4.99,3.6
-8.8820e-05,5.03,3.68
-8.8800e-05,4.95,3.52
-8.8780e-05,5.07,3.6
-8.8760e-05,4.99,3.6
-8.8740e-05,4.99,3.6
-8.8720e-05,5.03,3.6
-8.8700e-05,4.99,3.52
-8.8680e-05,4.99,3.6
-8.8660e-05,4.99,3.52
-8.8640e-05,5.03,3.52
-8.8620e-05,4.99,3.6
-8.8600e-05,4.99,3.6
-8.8580e-05,4.99,3.68
-8.8560e-05,4.99,3.52
-8.8540e-05,4.99,3.52
-8.8520e-05,4.99,3.52
-8.8500e-05,4.99,3.52
-8.8480e-05,5.03,3.52
-8.8460e-05,4.99,3.52
-8.8440e-05,4.99,3.68
-8.8420e-05,4.99,3.68
-8.8400e-05,4.99,3.6
-8.8380e-05,4.99,3.6
-8.8360e-05,4.99,3.6
-8.8340e-05,4.99,3.6
-8.8320e-05,4.99,3.6
-8.8300e-05,4.99,3.6
-8.8280e-05,4.99,3.6
-8.8260e-05,4.99,3.6
-8.8240e-05,5.03,3.52
-8.8220e-05,5.03,3.52
-8.8200e-05,5.03,3.68
-8.8180e-05,4.99,3.6
-8.8160e-05,5.03,3.6
-8.8140e-05,5.03,3.6
-8.8120e-05,4.99,3.52
-8.8100e-05,4.99,3.6
-8.8080e-05,4.99,3.52
-8.8060e-05,5.03,3.6
-8.8040e-05,4.99,3.6
-8.8020e-05,4.99,3.6
-8.8000e-05,5.07,3.6
-8.7980e-05,4.99,3.6
-8.7960e-05,4.99,3.52
-8.7940e-05,5.03,3.6
-8.7920e-05,4.99,3.52
-8.7900e-05,4.99,3.6
-8.7880e-05,4.95,3.52
-8.7860e-05,5.07,3.52
-8.7840e-05,4.99,1.44
-8.7820e-05,5.03,0.32
-8.7800e-05,5.03,0.32
-8.7780e-05,5.03,0.64
-8.7760e-05,5.07,0.64
-8.7740e-05,5.03,0.64
-8.7720e-05,4.99,0.56
-8.7700e-05,5.03,0.72
-8.7680e-05,5.11,0.64
-8.7660e-05,4.99,0.56
-8.7640e-05,4.35,2
-8.7620e-05,5.83,1.68
-8.7600e-05,3.87,1.44
-8.7580e-05,6.11,0.24
-8.7560e-05,4.75,1.12
-8.7540e-05,5.07,0.16
-8.7520e-05,5.31,0.64
-8.7500e-05,4.23,0.64
-8.7480e-05,5.67,0.64
-8.7460e-05,4.59,0.56
-8.7440e-05,5.39,0.56
-8.7420e-05,4.99,0.56
-8.7400e-05,4.67,0.72
-8.7380e-05,5.51,0.64
-8.7360e-05,4.27,0.64
-8.7340e-05,5.43,0.72
-8.7320e-05,4.99,0.56
-8.7300e-05,4.71,0.72
-8.7280e-05,5.55,0.64
-8.7260e-05,4.43,0.56
-8.7240e-05,5.43,0.64
-8.7220e-05,4.67,0.64
-8.7200e-05,4.91,0.64
-8.7180e-05,5.35,0.56
-8.7160e-05,4.55,0.64
-8.7140e-05,5.47,0.64
-8.7120e-05,4.67,0.56
-8.7100e-05,4.99,0.48
-8.7080e-05,5.19,0.72
-8.7060e-05,4.63,0.56
-8.7040e-05,5.31,0.64
-8.7020e-05,4.79,0.64
-8.7000e-05,5.11,0.48
-8.6980e-05,4.99,0.56
-8.6960e-05,4.91,0.64
-8.6940e-05,5.15,0.72
-8.6920e-05,4.79,0.56
-8.6900e-05,5.15,0.64
-8.6880e-05,4.99,0.64
-8.6860e-05,5.03,0.64
-8.6840e-05,5.11,0.72
-8.6820e-05,4.95,0.64
-8.6800e-05,5.07,0.64
-8.6780e-05,4.95,0.72
-8.6760e-05,5.07,0.72
-8.6740e-05,4.95,0.64
-8.6720e-05,4.99,0.72
-8.6700e-05,5.11,0.72
-8.6680e-05,5.03,0.64
-8.6660e-05,5.03,0.72
-8.6640e-05,4.99,0.64
-8.6620e-05,4.99,0.64
-8.6600e-05,5.03,0.64
-8.6580e-05,4.95,0.64
-8.6560e-05,4.99,0.72
-8.6540e-05,4.99,0.64
-8.6520e-05,5.07,0.72
-8.6500e-05,4.99,0.64
-8.6480e-05,5.03,0.72
-8.6460e-05,5.03,0.72
-8.6440e-05,4.99,0.72
-8.6420e-05,5.07,0.64
-8.6400e-05,4.99,0.72
-8.6380e-05,5.07,0.64
-8.6360e-05,5.03,0.64
-8.6340e-05,5.03,0.56
-8.6320e-05,4.99,0.72
-8.6300e-05,4.99,0.64
-8.6280e-05,5.03,0.72
-8.6260e-05,4.99,0.64
-8.6240e-05,5.03,0.72
-8.6220e-05,5.07,0.64
-8.6200e-05,4.99,0.72
-8.6180e-05,5.03,0.72
-8.6160e-05,4.99,0.72
-8.6140e-05,5.03,0.64
-8.6120e-05,4.95,0.72
-8.6100e-05,5.03,0.64
-8.6080e-05,5.07,0.64
-8.6060e-05,5.03,0.64
-8.6040e-05,5.03,0.64
-8.6020e-05,4.99,0.72
-8.6000e-05,5.03,0.64
-8.5980e-05,5.07,0.72
-8.5960e-05,5.07,0.64
-8.5940e-05,5.03,0.64
-8.5920e-05,4.99,0.64
-8.5900e-05,5.03,0.64
-8.5880e-05,5.03,0.64
-8.5860e-05,5.03,0.72
-8.5840e-05,5.03,0.72
-8.5820e-05,4.99,0.72
-8.5800e-05,5.03,0.64
-8.5780e-05,5.03,0.64
-8.5760e-05,5.07,0.64
-8.5740e-05,4.99,0.72
-8.5720e-05,4.95,0.64
-8.5700e-05,4.99,0.64
-8.5680e-05,4.99,0.64
-8.5660e-05,5.03,0.64
-8.5640e-05,4.99,0.56
-8.5620e-05,4.99,0.72
-8.5600e-05,4.99,0.72
-8.5580e-05,5.03,0.64
-8.5560e-05,4.99,0.72
-8.5540e-05,5.03,0.72
-8.5520e-05,4.99,0.64
-8.5500e-05,4.95,0.72
-8.5480e-05,4.99,0.72
-8.5460e-05,5.03,0.72
-8.5440e-05,4.95,0.72
-8.5420e-05,4.99,0.64
-8.5400e-05,4.99,0.64
-8.5380e-05,5.03,0.64
-8.5360e-05,4.99,0.64
-8.5340e-05,5.03,0.64
-8.5320e-05,4.99,0.64
-8.5300e-05,4.99,0.64
-8.5280e-05,5.03,0.72
-8.5260e-05,4.99,0.64
-8.5240e-05,4.99,0.64
-8.5220e-05,5.03,0.64
-8.5200e-05,4.99,0.56
-8.5180e-05,4.99,0.64
-8.5160e-05,4.99,0.64
-8.5140e-05,5.03,0.64
-8.5120e-05,4.99,0.72
-8.5100e-05,4.95,0.64
-8.5080e-05,5.03,0.8
-8.5060e-05,4.99,0.72
-8.5040e-05,4.99,0.72
-8.5020e-05,5.07,0.64
-8.5000e-05,5.03,0.64
-8.4980e-05,5.03,0.64
-8.4960e-05,4.95,0.72
-8.4940e-05,4.95,0.64
-8.4920e-05,4.99,0.64
-8.4900e-05,4.99,0.72
-8.4880e-05,5.03,0.64
-8.4860e-05,4.99,0.72
-8.4840e-05,4.99,0.72
-8.4820e-05,4.99,0.72
-8.4800e-05,4.99,0.64
-8.4780e-05,4.99,0.72
-8.4760e-05,4.99,0.8
-8.4740e-05,4.99,0.64
-8.4720e-05,4.99,0.64
-8.4700e-05,4.99,0.72
-8.4680e-05,4.99,0.64
-8.4660e-05,5.03,0.64
-8.4640e-05,4.99,0.72
-8.4620e-05,4.99,0.64
-8.4600e-05,4.99,0.72
-8.4580e-05,5.03,0.64
-8.4560e-05,5.03,0.64
-8.4540e-05,5.03,0.72
-8.4520e-05,4.99,0.72
-8.4500e-05,5.03,0.72
-8.4480e-05,5.03,0.72
-8.4460e-05,5.03,0.64
-8.4440e-05,4.99,0.64
-8.4420e-05,4.99,0.72
-8.4400e-05,4.99,0.72
-8.4380e-05,4.99,0.72
-8.4360e-05,5.03,0.64
-8.4340e-05,4.95,0.64
-8.4320e-05,4.99,0.72
-8.4300e-05,4.99,0.64
-8.4280e-05,4.99,0.72
-8.4260e-05,4.99,0.72
-8.4240e-05,5.03,0.64
-8.4220e-05,4.99,0.72
-8.4200e-05,4.95,0.64
-8.4180e-05,4.99,0.72
-8.4160e-05,4.99,0.64
-8.4140e-05,4.99,0.64
-8.4120e-05,4.99,0.72
-8.4100e-05,4.99,0.64
-8.4080e-05,4.99,0.56
-8.4060e-05,4.99,0.64
-8.4040e-05,4.91,0.64
-8.4020e-05,4.99,0.72
-8.4000e-05,4.99,0.64
-8.3980e-05,4.99,0.64
-8.3960e-05,5.03,0.64
-8.3940e-05,4.99,0.72
-8.3920e-05,4.99,0.64
-8.3900e-05,4.99,0.72
-8.3880e-05,4.95,0.72
-8.3860e-05,4.99,0.64
-8.3840e-05,4.99,0.64
-8.3820e-05,5.03,0.72
-8.3800e-05,4.99,0.72
-8.3780e-05,4.99,0.64
-8.3760e-05,4.95,0.64
-8.3740e-05,4.95,0.64
-8.3720e-05,4.99,0.64
-8.3700e-05,4.95,0.64
-8.3680e-05,4.99,0.64
-8.3660e-05,4.99,0.64
-8.3640e-05,5.03,0.64
-8.3620e-05,4.99,0.64
-8.3600e-05,4.99,0.64
-8.3580e-05,4.99,0.64
-8.3560e-05,4.99,0.72
-8.3540e-05,4.99,3.28
-8.3520e-05,4.99,3.84
-8.3500e-05,4.99,4.16
-8.3480e-05,4.99,3.68
-8.3460e-05,4.99,3.68
-8.3440e-05,5.03,3.6
-8.3420e-05,4.95,3.6
-8.3400e-05,4.95,3.68
-8.3380e-05,4.99,3.6
-8.3360e-05,4.95,3.68
-8.3340e-05,4.99,3.6
-8.3320e-05,4.95,3.6
-8.3300e-05,4.99,3.6
-8.3280e-05,4.99,3.68
-8.3260e-05,4.95,3.6
-8.3240e-05,4.99,3.6
-8.3220e-05,4.95,3.68
-8.3200e-05,4.99,3.6
-8.3180e-05,4.99,3.52
-8.3160e-05,4.95,3.6
-8.3140e-05,4.99,3.52
-8.3120e-05,4.95,3.68
-8.3100e-05,4.99,3.6
-8.3080e-05,4.95,3.6
-8.3060e-05,4.99,3.6
-8.3040e-05,4.99,3.68
-8.3020e-05,4.95,3.68
-8.3000e-05,4.99,3.52
-8.2980e-05,4.95,3.6
-8.2960e-05,4.95,3.68
-8.2940e-05,4.95,3.68
-8.2920e-05,4.83,3.84
-8.2900e-05,5.47,3.04
-8.2880e-05,4.63,3.2
-8.2860e-05,4.75,4.08
-8.2840e-05,5.47,3.6
-8.2820e-05,4.39,3.6
-8.2800e-05,5.47,3.52
-8.2780e-05,4.99,3.68
-8.2760e-05,4.79,3.52
-8.2740e-05,5.15,3.68
-8.2720e-05,4.83,3.68
-8.2700e-05,5.03,3.6
-8.2680e-05,4.83,3.76
-8.2660e-05,5.19,3.76
-8.2640e-05,4.99,3.52
-8.2620e-05,4.83,3.68
-8.2600e-05,5.39,3.6
-8.2580e-05,4.63,3.52
-8.2560e-05,4.91,3.68
-8.2540e-05,5.11,3.68
-8.2520e-05,4.75,3.6
-8.2500e-05,5.19,3.6
-8.2480e-05,5.03,3.68
-8.2460e-05,5.11,3.6
-8.2440e-05,4.91,3.6
-8.2420e-05,4.91,3.68
-8.2400e-05,5.07,3.68
-8.2380e-05,4.75,3.76
-8.2360e-05,5.15,3.68
-8.2340e-05,4.99,3.6
-8.2320e-05,4.95,3.44
-8.2300e-05,5.15,3.6
-8.2280e-05,4.91,3.6
-8.2260e-05,4.95,3.6
-8.2240e-05,4.99,3.76
-8.2220e-05,5.03,3.68
-8.2200e-05,4.95,3.6
-8.2180e-05,5.03,3.52
-8.2160e-05,5.07,3.6
-8.2140e-05,4.95,3.52
-8.2120e-05,4.99,3.68
-8.2100e-05,4.95,3.68
-8.2080e-05,4.91,3.6
-8.2060e-05,4.99,3.68
-8.2040e-05,4.99,3.6
-8.2020e-05,4.99,3.6
-8.2000e-05,4.95,3.52
-8.1980e-05,5.03,3.52
-8.1960e-05,4.91,3.6
-8.1940e-05,4.91,3.6
-8.1920e-05,5.07,3.6
